<svg width="61" height="60" viewBox="0 0 61 60" fill="none" xmlns="http://www.w3.org/2000/svg">
<g id="shopping_cart">
<path id="Vector" d="M41.8652 32.5C43.7402 32.5 45.3902 31.475 46.2402 29.925L55.1902 13.7C56.1152 12.05 54.9152 10 53.0152 10H16.0152L13.6652 5H5.49023V10H10.4902L19.4902 28.975L16.1152 35.075C14.2902 38.425 16.6902 42.5 20.4902 42.5H50.4902V37.5H20.4902L23.2402 32.5H41.8652ZM18.3902 15H48.7652L41.8652 27.5H24.3152L18.3902 15ZM20.4902 45C17.7402 45 15.5152 47.25 15.5152 50C15.5152 52.75 17.7402 55 20.4902 55C23.2402 55 25.4902 52.75 25.4902 50C25.4902 47.25 23.2402 45 20.4902 45ZM45.4902 45C42.7402 45 40.5152 47.25 40.5152 50C40.5152 52.75 42.7402 55 45.4902 55C48.2402 55 50.4902 52.75 50.4902 50C50.4902 47.25 48.2402 45 45.4902 45Z" fill="#9F9F9F"/>
</g>
</svg>
